<svg xmlns="http://www.w3.org/2000/svg" xmlns:xlink="http://www.w3.org/1999/xlink" width="581" height="865" viewBox="0 0 581 865">
  <defs>
    <filter id="Rectangle_25" x="0" y="0" width="581" height="865" filterUnits="userSpaceOnUse">
      <feOffset dy="3" input="SourceAlpha"/>
      <feGaussianBlur stdDeviation="3" result="blur"/>
      <feFlood flood-opacity="0.251"/>
      <feComposite operator="in" in2="blur"/>
      <feComposite in="SourceGraphic"/>
    </filter>
  </defs>
  <g id="Group_11" data-name="Group 11" transform="translate(-388 -111)">
    <g transform="matrix(1, 0, 0, 1, 388, 111)" filter="url(#Rectangle_25)">
      <rect id="Rectangle_25-2" data-name="Rectangle 25" width="563" height="847" rx="40" transform="translate(9 6)" fill="#fff"/>
    </g>
    <text id="NEGATIVE_COMMANDS" data-name="NEGATIVE
COMMANDS" transform="translate(679 203)" fill="#707070" font-size="51" font-family="MaisonNeue-ExtendedBlack, Maison Neue" font-weight="800"><tspan x="-136.017" y="0">NEGATIVE</tspan><tspan x="-168.427" y="61">COMMANDS</tspan></text>
    <text id="Menyembunyikan_kalimat_perintah_dalam_bentuk_larangan" data-name="Menyembunyikan kalimat 
perintah dalam bentuk larangan" transform="translate(679 368)" fill="#707070" font-size="30" font-family="MaisonNeue-ExtendedBook, Maison Neue"><tspan x="-196.47" y="0">Menyembunyikan kalimat </tspan><tspan x="-237.765" y="37">perintah dalam bentuk larangan</tspan></text>
    <text id="_Saran_saya_jangan_beli_barang_ini_" data-name="&quot;Saran saya jangan beli barang ini&quot;" transform="translate(679 498)" fill="#707070" font-size="30" font-family="MaisonNeue-ExtendedBook, Maison Neue"><tspan x="-253.425" y="0">&quot;Saran saya jangan beli barang ini&quot;</tspan></text>
    <text id="_Anda_tidak_perlu_terburu-buru_untuk_beli_" data-name="&quot;Anda tidak perlu 
terburu-buru untuk beli&quot;" transform="translate(679 588)" fill="#707070" font-size="30" font-family="MaisonNeue-ExtendedBook, Maison Neue"><tspan x="-131.49" y="0">&quot;Anda tidak perlu </tspan><tspan x="-180.6" y="37">terburu-buru untuk beli&quot;</tspan></text>
    <text id="MILTON_MODEL_Indirect_Elicitation_Patterns" data-name="MILTON MODEL
Indirect Elicitation Patterns" transform="translate(679 718)" fill="#707070" font-size="30" font-family="MaisonNeue-ExtendedBook, Maison Neue"><tspan x="-119.88" y="0">MILTON MODEL</tspan><tspan x="-202.53" y="37">Indirect Elicitation Patterns</tspan></text>
    <text id="www.NLPLeadershipIndonesia.com" transform="translate(679 850)" fill="rgba(112,112,112,0.34)" font-size="30" font-family="MaisonNeue-ExtendedBook, Maison Neue"><tspan x="-263.7" y="0">www.NLPLeadershipIndonesia.com</tspan></text>
  </g>
</svg>
